{
    "version": 2,
    "builds": [
        {
            "src": "app.py",
            "use": "@vercel/python"
        }
    ],
    "routes": [
        {
            "src": "/api/image",
            "methods": ["POST"],
            "dest": "app.process_image"
        },
        {
            "handle": "filesystem"
        },
        {
            "src": "/(.*)",
            "dest": "app.py"
        }
    ]
}
